<svg width="73" height="105" viewBox="0 0 73 105" fill="none" xmlns="http://www.w3.org/2000/svg">
<path d="M1.04 105V89.88L26.816 63.816C32 58.44 36.176 53.976 39.344 50.424C42.512 46.776 44.816 43.512 46.256 40.632C47.696 37.656 48.416 34.488 48.416 31.128C48.416 27 47.264 23.928 44.96 21.912C42.752 19.896 39.728 18.888 35.888 18.888C31.952 18.888 28.112 19.8 24.368 21.624C20.624 23.448 16.688 26.04 12.56 29.4L0.752 15.432C3.728 12.84 6.848 10.44 10.112 8.23199C13.472 6.02399 17.312 4.24799 21.632 2.90399C26.048 1.46399 31.328 0.743995 37.472 0.743995C44.192 0.743995 49.952 1.992 54.752 4.488C59.648 6.888 63.392 10.2 65.984 14.424C68.672 18.552 70.016 23.256 70.016 28.536C70.016 34.2 68.864 39.384 66.56 44.088C64.352 48.792 61.088 53.448 56.768 58.056C52.544 62.664 47.408 67.752 41.36 73.32L28.112 85.704V86.712H72.896V105H1.04Z" fill="#FFF9C5"/>
</svg>
